{
	"process_id" : 17588,
	"version" : "2021.3.18f1",
	"app_path" : "C:/Program Files/Unity/Hub/Editor/2021.3.18f1/Editor/Unity.exe",
	"app_contents_path" : "C:/Program Files/Unity/Hub/Editor/2021.3.18f1/Editor/Data"
}