{
  "BurstVersion": "ed7d93ab-72ae-4d46-9fc9-027b31698d75",
  "Assemblies": [
    {
      "FullName": "UnityEngine.CoreModule, Version=0.0.0.0, Culture=neutral, PublicKeyToken=null",
      "LastWriteTime": "2023-01-25T06:25:10Z"
    },
    {
      "FullName": "Unity.2D.SpriteShape.Runtime, Version=0.0.0.0, Culture=neutral, PublicKeyToken=null",
      "LastWriteTime": "2023-09-28T11:52:39.204678Z"
    },
    {
      "FullName": "UnityEngine.SpriteShapeModule, Version=0.0.0.0, Culture=neutral, PublicKeyToken=null",
      "LastWriteTime": "2023-01-25T06:25:10Z"
    },
    {
      "FullName": "mscorlib, Version=4.0.0.0, Culture=neutral, PublicKeyToken=b77a5c561934e089",
      "LastWriteTime": "2023-01-25T06:09:12Z"
    },
    {
      "FullName": "netstandard, Version=2.1.0.0, Culture=neutral, PublicKeyToken=cc7b13ffcd2ddd51",
      "LastWriteTime": "2023-01-25T06:09:12Z"
    },
    {
      "FullName": "Unity.Mathematics, Version=1.0.0.0, Culture=neutral, PublicKeyToken=null",
      "LastWriteTime": "2023-09-28T11:52:40.065913Z"
    },
    {
      "FullName": "Unity.2D.Common.Runtime, Version=0.0.0.0, Culture=neutral, PublicKeyToken=null",
      "LastWriteTime": "2023-09-28T11:52:40.2236034Z"
    },
    {
      "FullName": "mscorlib, Version=2.0.0.0, Culture=neutral, PublicKeyToken=b77a5c561934e089",
      "LastWriteTime": "2023-01-25T06:09:12Z"
    },
    {
      "FullName": "PsdPlugin, Version=0.0.0.0, Culture=neutral, PublicKeyToken=null",
      "LastWriteTime": "2023-09-28T11:52:40.0748891Z"
    },
    {
      "FullName": "Unity.2D.Animation.Editor, Version=0.0.0.0, Culture=neutral, PublicKeyToken=null",
      "LastWriteTime": "2023-09-28T11:52:39.8031648Z"
    },
    {
      "FullName": "Unity.Burst, Version=0.0.0.0, Culture=neutral, PublicKeyToken=null",
      "LastWriteTime": "2023-09-28T11:52:40.2236034Z"
    },
    {
      "FullName": "mscorlib, Version=0.0.0.0, Culture=neutral, PublicKeyToken=null",
      "LastWriteTime": "2023-01-25T06:09:12Z"
    },
    {
      "FullName": "UnityEditor.CoreModule, Version=0.0.0.0, Culture=neutral, PublicKeyToken=null",
      "LastWriteTime": "2023-01-25T06:25:10Z"
    },
    {
      "FullName": "Unity.2D.Common.Editor, Version=0.0.0.0, Culture=neutral, PublicKeyToken=null",
      "LastWriteTime": "2023-09-28T11:52:39.3179508Z"
    },
    {
      "FullName": "Unity.2D.Psdimporter.Editor, Version=0.0.0.0, Culture=neutral, PublicKeyToken=null",
      "LastWriteTime": "2023-09-28T11:52:39.7491702Z"
    },
    {
      "FullName": "Unity.2D.Animation.Runtime, Version=0.0.0.0, Culture=neutral, PublicKeyToken=null",
      "LastWriteTime": "2023-09-28T11:52:39.3980007Z"
    }
  ],
  "Functions": [
    {
      "FullName": "Unity.Jobs.IJobExtensions+JobStruct`1[[UnityEngine.U2D.SpriteShapeGenerator, Unity.2D.SpriteShape.Runtime, Version=0.0.0.0, Culture=neutral, PublicKeyToken=null]], UnityEngine.CoreModule, Version=0.0.0.0, Culture=neutral, PublicKeyToken=null::Execute(UnityEngine.U2D.SpriteShapeGenerator&, Unity.2D.SpriteShape.Runtime, Version=0.0.0.0, Culture=neutral, PublicKeyToken=null|System.IntPtr, mscorlib, Version=4.0.0.0, Culture=neutral, PublicKeyToken=b77a5c561934e089|System.IntPtr, mscorlib, Version=4.0.0.0, Culture=neutral, PublicKeyToken=b77a5c561934e089|Unity.Jobs.LowLevel.Unsafe.JobRanges&, UnityEngine.CoreModule, Version=0.0.0.0, Culture=neutral, PublicKeyToken=null|System.Int32, mscorlib, Version=4.0.0.0, Culture=neutral, PublicKeyToken=b77a5c561934e089)",
      "ModuleOptionsHash": 15221144590354301703,
      "ModuleHash": "d0b5728ee1140a5521109ae50893f79c",
      "LinkName": "104599FDEEB36FAE",
      "AssemblyDependencyIndices": [
        0,
        1,
        2,
        3,
        4,
        5,
        6,
        7
      ]
    },
    {
      "FullName": "Unity.Jobs.IJobParallelForExtensions+ParallelForJobStruct`1[[PaintDotNet.Data.PhotoshopFileType.PDNDecoderJob, PsdPlugin, Version=0.0.0.0, Culture=neutral, PublicKeyToken=null]], UnityEngine.CoreModule, Version=0.0.0.0, Culture=neutral, PublicKeyToken=null::Execute(PaintDotNet.Data.PhotoshopFileType.PDNDecoderJob&, PsdPlugin, Version=0.0.0.0, Culture=neutral, PublicKeyToken=null|System.IntPtr, mscorlib, Version=4.0.0.0, Culture=neutral, PublicKeyToken=b77a5c561934e089|System.IntPtr, mscorlib, Version=4.0.0.0, Culture=neutral, PublicKeyToken=b77a5c561934e089|Unity.Jobs.LowLevel.Unsafe.JobRanges&, UnityEngine.CoreModule, Version=0.0.0.0, Culture=neutral, PublicKeyToken=null|System.Int32, mscorlib, Version=4.0.0.0, Culture=neutral, PublicKeyToken=b77a5c561934e089)",
      "ModuleOptionsHash": 15221144590354301703,
      "ModuleHash": "9b68b616669dde095fd7bb6714693bd5",
      "LinkName": "4B57F329150937D0",
      "AssemblyDependencyIndices": [
        0,
        8,
        3,
        7
      ]
    },
    {
      "FullName": "Unity.Jobs.IJobExtensions+JobStruct`1[[UnityEditor.U2D.Animation.TriangulateJob, Unity.2D.Animation.Editor, Version=0.0.0.0, Culture=neutral, PublicKeyToken=null]], UnityEngine.CoreModule, Version=0.0.0.0, Culture=neutral, PublicKeyToken=null::Execute(UnityEditor.U2D.Animation.TriangulateJob&, Unity.2D.Animation.Editor, Version=0.0.0.0, Culture=neutral, PublicKeyToken=null|System.IntPtr, mscorlib, Version=4.0.0.0, Culture=neutral, PublicKeyToken=b77a5c561934e089|System.IntPtr, mscorlib, Version=4.0.0.0, Culture=neutral, PublicKeyToken=b77a5c561934e089|Unity.Jobs.LowLevel.Unsafe.JobRanges&, UnityEngine.CoreModule, Version=0.0.0.0, Culture=neutral, PublicKeyToken=null|System.Int32, mscorlib, Version=4.0.0.0, Culture=neutral, PublicKeyToken=b77a5c561934e089)",
      "ModuleOptionsHash": 15221144590354301703,
      "ModuleHash": "bb891cb5f93c177c6b6e716bcaf5b9f1",
      "LinkName": "49056CD1270901E4",
      "AssemblyDependencyIndices": [
        0,
        9,
        6,
        3,
        5,
        4,
        7
      ]
    },
    {
      "FullName": "Unity.Burst.Intrinsics.X86, Unity.Burst, Version=0.0.0.0, Culture=neutral, PublicKeyToken=null::DoSetCSRTrampoline(System.Int32, mscorlib, Version=4.0.0.0, Culture=neutral, PublicKeyToken=b77a5c561934e089)",
      "ModuleOptionsHash": 15221144590354301703,
      "ModuleHash": "a230afbfe3cfb740a6d966bf94f2b1c8",
      "LinkName": "801E9A000BB37B05",
      "AssemblyDependencyIndices": [
        10,
        4,
        3
      ]
    },
    {
      "FullName": "Unity.Jobs.IJobExtensions+JobStruct`1[[UnityEditor.U2D.Animation.BiharmonicsJob, Unity.2D.Animation.Editor, Version=0.0.0.0, Culture=neutral, PublicKeyToken=null]], UnityEngine.CoreModule, Version=0.0.0.0, Culture=neutral, PublicKeyToken=null::Execute(UnityEditor.U2D.Animation.BiharmonicsJob&, Unity.2D.Animation.Editor, Version=0.0.0.0, Culture=neutral, PublicKeyToken=null|System.IntPtr, mscorlib, Version=4.0.0.0, Culture=neutral, PublicKeyToken=b77a5c561934e089|System.IntPtr, mscorlib, Version=4.0.0.0, Culture=neutral, PublicKeyToken=b77a5c561934e089|Unity.Jobs.LowLevel.Unsafe.JobRanges&, UnityEngine.CoreModule, Version=0.0.0.0, Culture=neutral, PublicKeyToken=null|System.Int32, mscorlib, Version=4.0.0.0, Culture=neutral, PublicKeyToken=b77a5c561934e089)",
      "ModuleOptionsHash": 15221144590354301703,
      "ModuleHash": "dd3369938949a3cd9dbefbc7c7e454a9",
      "LinkName": "9C987EFE5F9A4A52",
      "AssemblyDependencyIndices": [
        0,
        9,
        11,
        3,
        5,
        4,
        10,
        6,
        12,
        7
      ]
    },
    {
      "FullName": "UnityEditor.U2D.Common.ImagePacker, Unity.2D.Common.Editor, Version=0.0.0.0, Culture=neutral, PublicKeyToken=null::BurstedBlit(UnityEngine.Color32*, UnityEngine.CoreModule, Version=0.0.0.0, Culture=neutral, PublicKeyToken=null|Unity.Mathematics.int4&, Unity.Mathematics, Version=1.0.0.0, Culture=neutral, PublicKeyToken=null|Unity.Mathematics.int4&, Unity.Mathematics, Version=1.0.0.0, Culture=neutral, PublicKeyToken=null|System.Int32, mscorlib, Version=4.0.0.0, Culture=neutral, PublicKeyToken=b77a5c561934e089|System.Int32, mscorlib, Version=4.0.0.0, Culture=neutral, PublicKeyToken=b77a5c561934e089|UnityEngine.Color32*, UnityEngine.CoreModule, Version=0.0.0.0, Culture=neutral, PublicKeyToken=null)",
      "ModuleOptionsHash": 15221144590354301703,
      "ModuleHash": "45617c29a81ce6228e1c0b7d51a5ce7c",
      "LinkName": "8115CAFF6B65630B",
      "AssemblyDependencyIndices": [
        13,
        3,
        5,
        12,
        0,
        10,
        4,
        7
      ]
    },
    {
      "FullName": "Unity.Jobs.IJobParallelForExtensions+ParallelForJobStruct`1[[UnityEditor.U2D.Common.FindTightRectJob, Unity.2D.Common.Editor, Version=0.0.0.0, Culture=neutral, PublicKeyToken=null]], UnityEngine.CoreModule, Version=0.0.0.0, Culture=neutral, PublicKeyToken=null::Execute(UnityEditor.U2D.Common.FindTightRectJob&, Unity.2D.Common.Editor, Version=0.0.0.0, Culture=neutral, PublicKeyToken=null|System.IntPtr, mscorlib, Version=4.0.0.0, Culture=neutral, PublicKeyToken=b77a5c561934e089|System.IntPtr, mscorlib, Version=4.0.0.0, Culture=neutral, PublicKeyToken=b77a5c561934e089|Unity.Jobs.LowLevel.Unsafe.JobRanges&, UnityEngine.CoreModule, Version=0.0.0.0, Culture=neutral, PublicKeyToken=null|System.Int32, mscorlib, Version=4.0.0.0, Culture=neutral, PublicKeyToken=b77a5c561934e089)",
      "ModuleOptionsHash": 15221144590354301703,
      "ModuleHash": "ba9d9f47287f3d7a0d6a72a09a72bbed",
      "LinkName": "FBD0B2A6246F6223",
      "AssemblyDependencyIndices": [
        0,
        13,
        3,
        7
      ]
    },
    {
      "FullName": "Unity.Jobs.IJobExtensions+JobStruct`1[[PaintDotNet.Data.PhotoshopFileType.PDNAlphaMaskJob, PsdPlugin, Version=0.0.0.0, Culture=neutral, PublicKeyToken=null]], UnityEngine.CoreModule, Version=0.0.0.0, Culture=neutral, PublicKeyToken=null::Execute(PaintDotNet.Data.PhotoshopFileType.PDNAlphaMaskJob&, PsdPlugin, Version=0.0.0.0, Culture=neutral, PublicKeyToken=null|System.IntPtr, mscorlib, Version=4.0.0.0, Culture=neutral, PublicKeyToken=b77a5c561934e089|System.IntPtr, mscorlib, Version=4.0.0.0, Culture=neutral, PublicKeyToken=b77a5c561934e089|Unity.Jobs.LowLevel.Unsafe.JobRanges&, UnityEngine.CoreModule, Version=0.0.0.0, Culture=neutral, PublicKeyToken=null|System.Int32, mscorlib, Version=4.0.0.0, Culture=neutral, PublicKeyToken=b77a5c561934e089)",
      "ModuleOptionsHash": 15221144590354301703,
      "ModuleHash": "592d370e374409dcee6c1d166a4d4d62",
      "LinkName": "B33AFCD7D8FB6AEB",
      "AssemblyDependencyIndices": [
        0,
        8,
        3,
        7
      ]
    },
    {
      "FullName": "Unity.Jobs.IJobParallelForExtensions+ParallelForJobStruct`1[[UnityEditor.U2D.PSD.FlattenImageTask+FlattenImageInternalJob, Unity.2D.Psdimporter.Editor, Version=0.0.0.0, Culture=neutral, PublicKeyToken=null]], UnityEngine.CoreModule, Version=0.0.0.0, Culture=neutral, PublicKeyToken=null::Execute(UnityEditor.U2D.PSD.FlattenImageTask+FlattenImageInternalJob&, Unity.2D.Psdimporter.Editor, Version=0.0.0.0, Culture=neutral, PublicKeyToken=null|System.IntPtr, mscorlib, Version=4.0.0.0, Culture=neutral, PublicKeyToken=b77a5c561934e089|System.IntPtr, mscorlib, Version=4.0.0.0, Culture=neutral, PublicKeyToken=b77a5c561934e089|Unity.Jobs.LowLevel.Unsafe.JobRanges&, UnityEngine.CoreModule, Version=0.0.0.0, Culture=neutral, PublicKeyToken=null|System.Int32, mscorlib, Version=4.0.0.0, Culture=neutral, PublicKeyToken=b77a5c561934e089)",
      "ModuleOptionsHash": 15221144590354301703,
      "ModuleHash": "154d9239b402b26b42b912d6438e2d96",
      "LinkName": "18C2EC3E41FEE880",
      "AssemblyDependencyIndices": [
        0,
        14,
        3,
        5,
        7
      ]
    },
    {
      "FullName": "Unity.Jobs.IJobExtensions+JobStruct`1[[UnityEditor.U2D.Animation.TessellateJob, Unity.2D.Animation.Editor, Version=0.0.0.0, Culture=neutral, PublicKeyToken=null]], UnityEngine.CoreModule, Version=0.0.0.0, Culture=neutral, PublicKeyToken=null::Execute(UnityEditor.U2D.Animation.TessellateJob&, Unity.2D.Animation.Editor, Version=0.0.0.0, Culture=neutral, PublicKeyToken=null|System.IntPtr, mscorlib, Version=4.0.0.0, Culture=neutral, PublicKeyToken=b77a5c561934e089|System.IntPtr, mscorlib, Version=4.0.0.0, Culture=neutral, PublicKeyToken=b77a5c561934e089|Unity.Jobs.LowLevel.Unsafe.JobRanges&, UnityEngine.CoreModule, Version=0.0.0.0, Culture=neutral, PublicKeyToken=null|System.Int32, mscorlib, Version=4.0.0.0, Culture=neutral, PublicKeyToken=b77a5c561934e089)",
      "ModuleOptionsHash": 15221144590354301703,
      "ModuleHash": "1e008ad0a5c8cf3b26e1b32d925c5a9d",
      "LinkName": "750999B742A414C6",
      "AssemblyDependencyIndices": [
        0,
        9,
        3,
        6,
        5,
        4,
        7
      ]
    },
    {
      "FullName": "Unity.Jobs.IJobParallelForExtensions+ParallelForJobStruct`1[[UnityEditor.U2D.PSD.ExtractLayerTask+ConvertBufferJob, Unity.2D.Psdimporter.Editor, Version=0.0.0.0, Culture=neutral, PublicKeyToken=null]], UnityEngine.CoreModule, Version=0.0.0.0, Culture=neutral, PublicKeyToken=null::Execute(UnityEditor.U2D.PSD.ExtractLayerTask+ConvertBufferJob&, Unity.2D.Psdimporter.Editor, Version=0.0.0.0, Culture=neutral, PublicKeyToken=null|System.IntPtr, mscorlib, Version=4.0.0.0, Culture=neutral, PublicKeyToken=b77a5c561934e089|System.IntPtr, mscorlib, Version=4.0.0.0, Culture=neutral, PublicKeyToken=b77a5c561934e089|Unity.Jobs.LowLevel.Unsafe.JobRanges&, UnityEngine.CoreModule, Version=0.0.0.0, Culture=neutral, PublicKeyToken=null|System.Int32, mscorlib, Version=4.0.0.0, Culture=neutral, PublicKeyToken=b77a5c561934e089)",
      "ModuleOptionsHash": 15221144590354301703,
      "ModuleHash": "44998d16fdea56cf31bec8e67ba05e38",
      "LinkName": "85C34B2AEC2FC609",
      "AssemblyDependencyIndices": [
        0,
        14,
        3,
        5,
        7
      ]
    },
    {
      "FullName": "Unity.Burst.Intrinsics.X86, Unity.Burst, Version=0.0.0.0, Culture=neutral, PublicKeyToken=null::DoGetCSRTrampoline()",
      "ModuleOptionsHash": 15221144590354301703,
      "ModuleHash": "d1a77dc85427b552b7cc3a8110916209",
      "LinkName": "CDCA4A5193BE5947",
      "AssemblyDependencyIndices": [
        10,
        4,
        3
      ]
    },
    {
      "FullName": "UnityEditor.U2D.Animation.TriangulationUtility, Unity.2D.Animation.Editor, Version=0.0.0.0, Culture=neutral, PublicKeyToken=null::ValidateCollinear(Unity.Mathematics.float2*, Unity.Mathematics, Version=1.0.0.0, Culture=neutral, PublicKeyToken=null|System.Int32, mscorlib, Version=4.0.0.0, Culture=neutral, PublicKeyToken=b77a5c561934e089|System.Single, mscorlib, Version=4.0.0.0, Culture=neutral, PublicKeyToken=b77a5c561934e089)",
      "ModuleOptionsHash": 15221144590354301703,
      "ModuleHash": "a6120540728e2c612661ae54ee747456",
      "LinkName": "7F9BDFAB3718C423",
      "AssemblyDependencyIndices": [
        9,
        3,
        5,
        10,
        4,
        0,
        12
      ]
    },
    {
      "FullName": "UnityEngine.U2D.Animation.BurstedSpriteSkinUtilities, Unity.2D.Animation.Runtime, Version=0.0.0.0, Culture=neutral, PublicKeyToken=null::ValidateBoneWeights(Unity.Collections.NativeSlice`1[[UnityEngine.BoneWeight, UnityEngine.CoreModule, Version=0.0.0.0, Culture=neutral, PublicKeyToken=null]]&, UnityEngine.CoreModule, Version=0.0.0.0, Culture=neutral, PublicKeyToken=null|System.Int32, mscorlib, Version=4.0.0.0, Culture=neutral, PublicKeyToken=b77a5c561934e089)",
      "ModuleOptionsHash": 15221144590354301703,
      "ModuleHash": "6419d59de01b1dc772df249961e1d053",
      "LinkName": "22C1BA9B75E8DDE1",
      "AssemblyDependencyIndices": [
        15,
        4,
        3,
        0,
        10,
        12,
        7
      ]
    },
    {
      "FullName": "UnityEditor.U2D.Animation.TriangulationUtility, Unity.2D.Animation.Editor, Version=0.0.0.0, Culture=neutral, PublicKeyToken=null::TessellateBurst(Unity.Collections.Allocator, UnityEngine.CoreModule, Version=0.0.0.0, Culture=neutral, PublicKeyToken=null|Unity.Mathematics.float2*, Unity.Mathematics, Version=1.0.0.0, Culture=neutral, PublicKeyToken=null|System.Int32, mscorlib, Version=4.0.0.0, Culture=neutral, PublicKeyToken=b77a5c561934e089|Unity.Mathematics.int2*, Unity.Mathematics, Version=1.0.0.0, Culture=neutral, PublicKeyToken=null|System.Int32, mscorlib, Version=4.0.0.0, Culture=neutral, PublicKeyToken=b77a5c561934e089|Unity.Mathematics.float2*, Unity.Mathematics, Version=1.0.0.0, Culture=neutral, PublicKeyToken=null|System.Int32*, mscorlib, Version=4.0.0.0, Culture=neutral, PublicKeyToken=b77a5c561934e089|Unity.Mathematics.int2*, Unity.Mathematics, Version=1.0.0.0, Culture=neutral, PublicKeyToken=null|System.Int32, mscorlib, Version=4.0.0.0, Culture=neutral, PublicKeyToken=b77a5c561934e089|Unity.Mathematics.int3*, Unity.Mathematics, Version=1.0.0.0, Culture=neutral, PublicKeyToken=null)",
      "ModuleOptionsHash": 15221144590354301703,
      "ModuleHash": "c75507ab6a184632c896febd1477e49f",
      "LinkName": "7D2E04AB7759F565",
      "AssemblyDependencyIndices": [
        9,
        3,
        0,
        5,
        4,
        10,
        6,
        12,
        7
      ]
    },
    {
      "FullName": "UnityEditor.U2D.Animation.TriangulationUtility, Unity.2D.Animation.Editor, Version=0.0.0.0, Culture=neutral, PublicKeyToken=null::SubdivideBurst(Unity.Collections.Allocator, UnityEngine.CoreModule, Version=0.0.0.0, Culture=neutral, PublicKeyToken=null|Unity.Mathematics.float2*, Unity.Mathematics, Version=1.0.0.0, Culture=neutral, PublicKeyToken=null|System.Int32, mscorlib, Version=4.0.0.0, Culture=neutral, PublicKeyToken=b77a5c561934e089|Unity.Mathematics.int2*, Unity.Mathematics, Version=1.0.0.0, Culture=neutral, PublicKeyToken=null|System.Int32, mscorlib, Version=4.0.0.0, Culture=neutral, PublicKeyToken=b77a5c561934e089|Unity.Mathematics.float2*, Unity.Mathematics, Version=1.0.0.0, Culture=neutral, PublicKeyToken=null|System.Int32*, mscorlib, Version=4.0.0.0, Culture=neutral, PublicKeyToken=b77a5c561934e089|Unity.Mathematics.int2*, Unity.Mathematics, Version=1.0.0.0, Culture=neutral, PublicKeyToken=null|System.Int32, mscorlib, Version=4.0.0.0, Culture=neutral, PublicKeyToken=b77a5c561934e089|System.Single, mscorlib, Version=4.0.0.0, Culture=neutral, PublicKeyToken=b77a5c561934e089|System.Single, mscorlib, Version=4.0.0.0, Culture=neutral, PublicKeyToken=b77a5c561934e089|System.Int32, mscorlib, Version=4.0.0.0, Culture=neutral, PublicKeyToken=b77a5c561934e089|System.Int32, mscorlib, Version=4.0.0.0, Culture=neutral, PublicKeyToken=b77a5c561934e089|Unity.Mathematics.int3*, Unity.Mathematics, Version=1.0.0.0, Culture=neutral, PublicKeyToken=null)",
      "ModuleOptionsHash": 15221144590354301703,
      "ModuleHash": "4c11f12828bdb6f7c75f621b855d21b4",
      "LinkName": "4E9252389FAD9FEE",
      "AssemblyDependencyIndices": [
        9,
        3,
        0,
        5,
        10,
        4,
        6,
        12,
        7
      ]
    },
    {
      "FullName": "UnityEditor.U2D.Animation.BoundedBiharmonicWeightsGenerator, Unity.2D.Animation.Editor, Version=0.0.0.0, Culture=neutral, PublicKeyToken=null::SampleBones_(Unity.Mathematics.float2*, Unity.Mathematics, Version=1.0.0.0, Culture=neutral, PublicKeyToken=null|Unity.Mathematics.int2*, Unity.Mathematics, Version=1.0.0.0, Culture=neutral, PublicKeyToken=null|System.Int32, mscorlib, Version=4.0.0.0, Culture=neutral, PublicKeyToken=b77a5c561934e089|System.Int32, mscorlib, Version=4.0.0.0, Culture=neutral, PublicKeyToken=b77a5c561934e089|Unity.Mathematics.float2*, Unity.Mathematics, Version=1.0.0.0, Culture=neutral, PublicKeyToken=null)",
      "ModuleOptionsHash": 15221144590354301703,
      "ModuleHash": "24a1c6635de3dcc874999d14280d68a7",
      "LinkName": "4C542F1631655C96",
      "AssemblyDependencyIndices": [
        9,
        3,
        5,
        4,
        10,
        0,
        12,
        7
      ]
    },
    {
      "FullName": "UnityEditor.U2D.Animation.BoundedBiharmonicWeightsGenerator, Unity.2D.Animation.Editor, Version=0.0.0.0, Culture=neutral, PublicKeyToken=null::TriangulateSamplers_(Unity.Mathematics.float2*, Unity.Mathematics, Version=1.0.0.0, Culture=neutral, PublicKeyToken=null|System.Int32, mscorlib, Version=4.0.0.0, Culture=neutral, PublicKeyToken=b77a5c561934e089|Unity.Mathematics.float2*, Unity.Mathematics, Version=1.0.0.0, Culture=neutral, PublicKeyToken=null|System.Int32&, mscorlib, Version=4.0.0.0, Culture=neutral, PublicKeyToken=b77a5c561934e089|System.Int32*, mscorlib, Version=4.0.0.0, Culture=neutral, PublicKeyToken=b77a5c561934e089|System.Int32&, mscorlib, Version=4.0.0.0, Culture=neutral, PublicKeyToken=b77a5c561934e089)",
      "ModuleOptionsHash": 15221144590354301703,
      "ModuleHash": "e92eaa93624ec7125512aa32bb633502",
      "LinkName": "0DF0BB6E3E9C95ED",
      "AssemblyDependencyIndices": [
        9,
        3,
        5,
        4,
        10,
        6,
        0,
        12
      ]
    },
    {
      "FullName": "UnityEditor.U2D.Animation.BoundedBiharmonicWeightsGenerator, Unity.2D.Animation.Editor, Version=0.0.0.0, Culture=neutral, PublicKeyToken=null::TriangulateInternal_(System.Void*, mscorlib, Version=4.0.0.0, Culture=neutral, PublicKeyToken=b77a5c561934e089|System.Int32, mscorlib, Version=4.0.0.0, Culture=neutral, PublicKeyToken=b77a5c561934e089|System.Void*, mscorlib, Version=4.0.0.0, Culture=neutral, PublicKeyToken=b77a5c561934e089|System.Void*, mscorlib, Version=4.0.0.0, Culture=neutral, PublicKeyToken=b77a5c561934e089|System.Int32&, mscorlib, Version=4.0.0.0, Culture=neutral, PublicKeyToken=b77a5c561934e089)",
      "ModuleOptionsHash": 15221144590354301703,
      "ModuleHash": "86c2118db9b0c44dca628301c6a87f30",
      "LinkName": "9C009FC40CDEA715",
      "AssemblyDependencyIndices": [
        9,
        3,
        10,
        4,
        5,
        6,
        0,
        12
      ]
    },
    {
      "FullName": "UnityEditor.U2D.Animation.BoundedBiharmonicWeightsGenerator, Unity.2D.Animation.Editor, Version=0.0.0.0, Culture=neutral, PublicKeyToken=null::CalculateInternal_(Unity.Mathematics.float2*, Unity.Mathematics, Version=1.0.0.0, Culture=neutral, PublicKeyToken=null|System.Int32, mscorlib, Version=4.0.0.0, Culture=neutral, PublicKeyToken=b77a5c561934e089|System.Int32*, mscorlib, Version=4.0.0.0, Culture=neutral, PublicKeyToken=b77a5c561934e089|System.Int32, mscorlib, Version=4.0.0.0, Culture=neutral, PublicKeyToken=b77a5c561934e089|Unity.Mathematics.float2*, Unity.Mathematics, Version=1.0.0.0, Culture=neutral, PublicKeyToken=null|System.Int32, mscorlib, Version=4.0.0.0, Culture=neutral, PublicKeyToken=b77a5c561934e089|Unity.Mathematics.int2*, Unity.Mathematics, Version=1.0.0.0, Culture=neutral, PublicKeyToken=null|System.Int32, mscorlib, Version=4.0.0.0, Culture=neutral, PublicKeyToken=b77a5c561934e089|System.Int32*, mscorlib, Version=4.0.0.0, Culture=neutral, PublicKeyToken=b77a5c561934e089|System.Int32, mscorlib, Version=4.0.0.0, Culture=neutral, PublicKeyToken=b77a5c561934e089|System.Int32, mscorlib, Version=4.0.0.0, Culture=neutral, PublicKeyToken=b77a5c561934e089|System.Int32, mscorlib, Version=4.0.0.0, Culture=neutral, PublicKeyToken=b77a5c561934e089|System.Int32, mscorlib, Version=4.0.0.0, Culture=neutral, PublicKeyToken=b77a5c561934e089|UnityEngine.BoneWeight*, UnityEngine.CoreModule, Version=0.0.0.0, Culture=neutral, PublicKeyToken=null|System.Int32, mscorlib, Version=4.0.0.0, Culture=neutral, PublicKeyToken=b77a5c561934e089)",
      "ModuleOptionsHash": 15221144590354301703,
      "ModuleHash": "1eb07888d30e22fb850c2b59d9f7e2f3",
      "LinkName": "1275254E9CEB788C",
      "AssemblyDependencyIndices": [
        9,
        3,
        5,
        0,
        4,
        10,
        6,
        12,
        7
      ]
    }
  ]
}